-------------------------------------------------------------------------------
Test set: TestSuite
-------------------------------------------------------------------------------
Tests run: 9, Failures: 3, Errors: 0, Skipped: 0, Time elapsed: 153.928 s <<< FAILURE! - in TestSuite
BestProjectListTest(com.zuru.qa.testcase.HomePageTest)  Time elapsed: 4.862 s  <<< FAILURE!
java.lang.AssertionError: expected [est] but found [Best]
	at com.zuru.qa.testcase.HomePageTest.BestProjectListTest(HomePageTest.java:50)

PageTitleTest(com.zuru.qa.testcase.HomePageTest)  Time elapsed: 5.012 s  <<< FAILURE!
java.lang.AssertionError: expected [tore] but found [Store]
	at com.zuru.qa.testcase.HomePageTest.PageTitleTest(HomePageTest.java:43)

ProjLikeTest(com.zuru.qa.testcase.HomePageTest)  Time elapsed: 6.624 s  <<< FAILURE!
java.lang.AssertionError: Project doesn't like expected [true] but found [false]
	at com.zuru.qa.testcase.HomePageTest.ProjLikeTest(HomePageTest.java:55)

