<?xml version="1.0" encoding="UTF-8"?>
<!DOCTYPE suite SYSTEM "http://testng.org/testng-1.0.dtd">
<suite guice-stage="DEVELOPMENT" verbose="0" name="Failed suite [Suite]">
  <test thread-count="5" verbose="0" name="Test(failed)">
    <classes>
      <class name="com.zuru.qa.testcase.HomePageTest">
        <methods>
          <include name="PageTitleTest"/>
          <include name="tearDown"/>
          <include name="BestProjectListTest"/>
          <include name="setUp"/>
          <include name="ProjLikeTest"/>
        </methods>
      </class> <!-- com.zuru.qa.testcase.HomePageTest -->
    </classes>
  </test> <!-- Test(failed) -->
</suite> <!-- Failed suite [Suite] -->
