com\zuru\qa\pages\LoginPage.class
com\zuru\qa\pages\ProjectsPage.class
com\zuru\qa\util\WebEventListener.class
com\zuru\qa\pages\EditProjectDetail.class
com\zuru\qa\pages\ProjectDetailPage.class
com\zuru\qa\base\TestBaseClass.class
com\zuru\qa\pages\UploadProjectPage.class
com\zuru\qa\util\TestUtil.class
com\zuru\qa\pages\HomePage.class
